Piano.mf.C4_1-1363238_waveform.png
Piano.mf.D4_1-1299317_waveform.png
Piano.mf.E4_1-1285432_waveform.png
Piano.mf.F4_1-1227855_waveform.png
Piano.mf.G4_1-1384233_waveform.png
Trumpet.novib.mf.C5B5_104480-293520_waveform.png
Trumpet.novib.mf.C5B5_1581600-1769720_waveform.png
Trumpet.novib.mf.C5B5_1961720-2160800_waveform.png
Trumpet.novib.mf.C5B5_2666400-2848680_waveform.png
Trumpet.novib.mf.C5B5_836320-1026400_waveform.png
Violin.arco.mf.sulA.C5B5_1096400-1327360_waveform.png
Violin.arco.mf.sulA.C5B5_160440-410840_waveform.png
Violin.arco.mf.sulA.C5B5_2353080-2604560_waveform.png
Violin.arco.mf.sulA.C5B5_3291320-3537400_waveform.png
Violin.arco.mf.sulA.C5B5_3727000-3952960_waveform.png
flute.novib.mf.C5B5_13200-113999_waveform.png
flute.novib.mf.C5B5_254400-351600_waveform.png
flute.novib.mf.C5B5_500998-590402_waveform.png
flute.novib.mf.C5B5_618600-708599_waveform.png
flute.novib.mf.C5B5_842398-928799_waveform.png
